{


	"md":{

"meta": {
    "code": 200,
    "errorMessage": "",
    "errorTrace": ""
  },
  "data": "&lt;?xml version=&quot;1.0&quot; encoding=&quot;UTF-8&quot;?&gt;&lt;np:EDLMetadata xmlns:np=&quot;http://schemas.nextpathway.com/EDLMetadata/2016/11/23&quot; xmlns:xsi=&quot;http://www.w3.org/2001/XMLSchema-instance&quot; xsi:schemaLocation=&quot;http://schemas.nextpathway.com/EDLMetadata/2016/11/23 EDLMetadata.xsd &quot;&gt;  &lt;applicationCode&gt;applicationCode&lt;/applicationCode&gt;  &lt;feedName&gt;feedName&lt;/feedName&gt;  &lt;technicalMDversion&gt;0&lt;/technicalMDversion&gt;  &lt;businessMDversion&gt;0&lt;/businessMDversion&gt;  &lt;businessMetadata&gt;    &lt;countryOfOrigin&gt;countryOfOrigin&lt;/countryOfOrigin&gt;    &lt;allowZeroFeedSize&gt;true&lt;/allowZeroFeedSize&gt;    &lt;applicationAcronym&gt;applicationAcronym&lt;/applicationAcronym&gt;    &lt;applicationClassification&gt;applicationClassification&lt;/applicationClassification&gt;    &lt;shortDescription&gt;shortDescription&lt;/shortDescription&gt;    &lt;fullDescription&gt;fullDescription&lt;/fullDescription&gt;    &lt;feedGroups&gt;      &lt;feedGroupCode&gt;feedGroupCode&lt;/feedGroupCode&gt;      &lt;parentFeedGroupCode&gt;parentFeedGroupCode&lt;/parentFeedGroupCode&gt;    &lt;/feedGroups&gt;    &lt;recordInfo&gt;      &lt;recordType&gt;DATA&lt;/recordType&gt;      &lt;fieldDefinition&gt;        &lt;fieldNamePath&gt;fieldNamePath&lt;/fieldNamePath&gt;        &lt;privacyClassification&gt;privacyClassification&lt;/privacyClassification&gt;        &lt;shortDescription&gt;shortDescription&lt;/shortDescription&gt;        &lt;fullDescription&gt;fullDescription&lt;/fullDescription&gt;        &lt;encryptionType&gt;encryptionType&lt;/encryptionType&gt;        &lt;dataStatistics&gt;          &lt;statistic&gt;statistic&lt;/statistic&gt;        &lt;/dataStatistics&gt;      &lt;/fieldDefinition&gt;    &lt;/recordInfo&gt;  &lt;/businessMetadata&gt;  &lt;technicalMetadata&gt;    &lt;confidentialityClassification&gt;confidentialityClassification&lt;/confidentialityClassification&gt;    &lt;sourceFeed&gt;      &lt;recordDelimiter&gt;recordDelimiter&lt;/recordDelimiter&gt;      &lt;fieldDelimiter&gt;fieldDelimiter&lt;/fieldDelimiter&gt;      &lt;nullChars&gt;nullChars&lt;/nullChars&gt;      &lt;sourceSchemaFilePath&gt;sourceSchemaFilePath&lt;/sourceSchemaFilePath&gt;      &lt;recordInfo&gt;        &lt;recordType&gt;DATA&lt;/recordType&gt;        &lt;fieldDefinition&gt;          &lt;fieldNamePath&gt;fieldNamePath&lt;/fieldNamePath&gt;          &lt;type&gt;type&lt;/type&gt;          &lt;length&gt;0&lt;/length&gt;          &lt;precision&gt;0&lt;/precision&gt;          &lt;scale&gt;0&lt;/scale&gt;          &lt;format&gt;format&lt;/format&gt;          &lt;offset&gt;0&lt;/offset&gt;          &lt;nullChars&gt;nullChars&lt;/nullChars&gt;          &lt;definedBy&gt;SOURCE_SCHEMA&lt;/definedBy&gt;          &lt;structSelection flag=&quot;&quot;&gt;            &lt;target value=&quot;&quot;&gt;target&lt;/target&gt;          &lt;/structSelection&gt;        &lt;/fieldDefinition&gt;      &lt;/recordInfo&gt;      &lt;characterEncoding&gt;ASCII&lt;/characterEncoding&gt;      &lt;formatType&gt;COBOL&lt;/formatType&gt;      &lt;formatSubType&gt;BINARY&lt;/formatSubType&gt;      &lt;repositories&gt;        &lt;id&gt;INVALID&lt;/id&gt;        &lt;compressionCodec&gt;BZIP2&lt;/compressionCodec&gt;        &lt;type&gt;HBASE&lt;/type&gt;        &lt;writer&gt;AVRO&lt;/writer&gt;        &lt;partitionByFields&gt;          &lt;partitionByFields&gt;            &lt;partitionByField&gt;              &lt;fieldNamePath&gt;fieldNamePath&lt;/fieldNamePath&gt;              &lt;defaultValue&gt;defaultValue&lt;/defaultValue&gt;            &lt;/partitionByField&gt;          &lt;/partitionByFields&gt;          &lt;partitionMethod&gt;SOURCE_SCHEMA&lt;/partitionMethod&gt;        &lt;/partitionByFields&gt;      &lt;/repositories&gt;      &lt;compressionCodec&gt;BZIP2&lt;/compressionCodec&gt;    &lt;/sourceFeed&gt;  &lt;/technicalMetadata&gt;&lt;/np:EDLMetadata&gt;"
},


"temp-xsd":{

  "meta": {
      "code": 200,
      "errorMessage": "",
      "errorTrace": ""
    },
    "data": "<?xml version=\\\"1.0\\\" encoding=\\\"utf-8\\\"?>\r\n  <xs:schema targetNamespace=\\\"http:\/\/schemas.nextpathway.com\/EDLMetadata\/2016\/11\/23\\\" xmlns:xs=\\\"http:\/\/www.w3.org\/2001\/XMLSchema\\\" xmlns:np=\\\"http:\/\/schemas.nextpathway.com\/EDLMetadata\/2016\/11\/23\\\" xmlns:jaxb=\\\"http:\/\/java.sun.com\/xml\/ns\/jaxb\\\">\r\n\t<xs:element name=\\\"EDLMetadata\\\" type=\\\"np:EDLMetadata\\\"\/>\r\n\t<xs:complexType name=\\\"EDLMetadata\\\">\r\n\t\t<xs:sequence>\r\n\t\t\t<xs:element name=\\\"applicationCode\\\" type=\\\"xs:string\\\" minOccurs=\\\"1\\\" maxOccurs=\\\"1\\\"\/>\r\n\t\t\t<xs:element name=\\\"feedName\\\" type=\\\"xs:string\\\" minOccurs=\\\"1\\\" maxOccurs=\\\"1\\\"\/>\r\n\t\t\t<xs:element name=\\\"technicalMDversion\\\" type=\\\"xs:int\\\" minOccurs=\\\"1\\\" maxOccurs=\\\"1\\\"\/>\r\n\t\t\t<xs:element name=\\\"businessMDversion\\\" type=\\\"xs:int\\\" minOccurs=\\\"1\\\" maxOccurs=\\\"1\\\"\/>\r\n\t\t\t<xs:element name=\\\"businessMetadata\\\" type=\\\"np:BusinessMetadata\\\" minOccurs=\\\"0\\\" maxOccurs=\\\"1\\\"\/>\r\n\t\t\t<xs:element name=\\\"technicalMetadata\\\" type=\\\"np:TechnicalMetadata\\\" minOccurs=\\\"1\\\" maxOccurs=\\\"1\\\"\/>\r\n\t\t<\/xs:sequence>\r\n\t<\/xs:complexType>\r\n\t<xs:element name=\\\"TechnicalMetadata\\\" type=\\\"np:TechnicalMetadata\\\"\/>\r\n\t<xs:complexType name=\\\"TechnicalMetadata\\\">\r\n\t\t<xs:sequence>\r\n\t\t\t<xs:element name=\\\"confidentialityClassification\\\" type=\\\"xs:string\\\" minOccurs=\\\"0\\\" maxOccurs=\\\"1\\\"\/>\r\n\t\t\t<xs:element name=\\\"sourceFeed\\\" type=\\\"np:SourceFeed\\\" minOccurs=\\\"1\\\" maxOccurs=\\\"1\\\"\/>\r\n\t\t<\/xs:sequence>\r\n\t<\/xs:complexType>\r\n\t<xs:element name=\\\"BusinessMetadata\\\" type=\\\"np:BusinessMetadata\\\"\/>\r\n\t<xs:complexType name=\\\"BusinessMetadata\\\">\r\n\t\t<xs:sequence>\r\n            <!-- candidates to be removed\r\n\t\t\t<xs:element name=\\\"_sourceFeedLabel\\\" type=\\\"xs:int\\\" minOccurs=\\\"1\\\" maxOccurs=\\\"1\\\"\/>\r\n\t\t\t<xs:element name=\\\"_feedGroupCode\\\" type=\\\"xs:string\\\" minOccurs=\\\"0\\\" maxOccurs=\\\"1\\\">\r\n\t\t\t\t<xs:annotation>\r\n\t\t\t\t\t<xs:documentation>Required?<\/xs:documentation>\r\n\t\t\t\t<\/xs:annotation>\r\n\t\t\t<\/xs:element>\r\n            -->\r\n\t\t\t<xs:element name=\\\"countryOfOrigin\\\" type=\\\"xs:string\\\" minOccurs=\\\"0\\\" maxOccurs=\\\"1\\\"\/>\r\n\t\t\t<xs:element name=\\\"allowZeroFeedSize\\\" type=\\\"xs:boolean\\\" minOccurs=\\\"0\\\" maxOccurs=\\\"1\\\"\/>\r\n\t\t\t<xs:element name=\\\"applicationAcronym\\\" type=\\\"xs:string\\\" minOccurs=\\\"0\\\" maxOccurs=\\\"1\\\"\/>\r\n\t\t\t<xs:element name=\\\"applicationClassification\\\" type=\\\"xs:string\\\" minOccurs=\\\"0\\\" maxOccurs=\\\"1\\\"\/>\r\n\t\t\t<xs:element name=\\\"shortDescription\\\" type=\\\"xs:string\\\" minOccurs=\\\"1\\\" maxOccurs=\\\"1\\\"\/>\r\n\t\t\t<xs:element name=\\\"fullDescription\\\" type=\\\"xs:string\\\" minOccurs=\\\"1\\\" maxOccurs=\\\"1\\\"\/>\r\n\t\t\t<xs:element name=\\\"feedGroups\\\" type=\\\"np:FeedGroup\\\" minOccurs=\\\"0\\\" maxOccurs=\\\"unbounded\\\"\/>\r\n\t\t\t<xs:element name=\\\"recordInfo\\\" type=\\\"np:BusinessRecordInfo\\\" minOccurs=\\\"0\\\" maxOccurs=\\\"1\\\">\r\n\t\t\t\t<xs:annotation>\r\n\t\t\t\t\t<xs:documentation>For DATA RecordType only<\/xs:documentation>\r\n\t\t\t\t<\/xs:annotation>\r\n\t\t\t<\/xs:element>\r\n\t\t<\/xs:sequence>\r\n\t<\/xs:complexType>\r\n\t<xs:element name=\\\"SourceFeed\\\" type=\\\"np:SourceFeed\\\"\/>\r\n\t<xs:complexType name=\\\"SourceFeed\\\">\r\n\t\t<xs:sequence>\r\n\t\t\t<xs:element name=\\\"recordDelimiter\\\" type=\\\"xs:string\\\" minOccurs=\\\"0\\\" maxOccurs=\\\"1\\\"\/>\r\n\t\t\t<xs:element name=\\\"fieldDelimiter\\\" type=\\\"xs:string\\\" minOccurs=\\\"0\\\" maxOccurs=\\\"1\\\"\/>\r\n\t\t\t<xs:element name=\\\"nullChars\\\" type=\\\"xs:string\\\" minOccurs=\\\"0\\\" maxOccurs=\\\"1\\\">\r\n\t\t\t\t<xs:annotation>\r\n\t\t\t\t\t<xs:documentation>regEx expression specifying null char pattern for all the fields in the feed.<\/xs:documentation>\r\n\t\t\t\t<\/xs:annotation>\r\n\t\t\t<\/xs:element>\r\n\t\t\t<xs:element name=\\\"sourceSchemaFilePath\\\" type=\\\"xs:string\\\" minOccurs=\\\"0\\\" maxOccurs=\\\"1\\\"\/>\r\n\t\t\t<xs:element name=\\\"recordInfo\\\" type=\\\"np:TechnicalRecordInfo\\\" minOccurs=\\\"1\\\" maxOccurs=\\\"unbounded\\\"\/>\r\n\t\t\t<xs:element name=\\\"characterEncoding\\\" type=\\\"np:CharacterEncoding\\\" minOccurs=\\\"1\\\" maxOccurs=\\\"1\\\"\/>\r\n\t\t\t<xs:element name=\\\"formatType\\\" type=\\\"np:FormatType\\\" minOccurs=\\\"1\\\" maxOccurs=\\\"1\\\"\/>\r\n\t\t\t<xs:element name=\\\"formatSubType\\\" type=\\\"np:FormatSubType\\\" minOccurs=\\\"1\\\" maxOccurs=\\\"1\\\"\/>\r\n\t\t\t<xs:element name=\\\"repositories\\\" type=\\\"np:Repository\\\" minOccurs=\\\"0\\\" maxOccurs=\\\"3\\\"\/>\r\n\t\t\t<xs:element name=\\\"compressionCodec\\\" type=\\\"np:CompressionCodec\\\" minOccurs=\\\"0\\\" maxOccurs=\\\"1\\\"\/>\r\n\t\t<\/xs:sequence>\r\n\t<\/xs:complexType>\r\n\t<xs:element name=\\\"TechnicalRecordInfo\\\" type=\\\"np:TechnicalRecordInfo\\\"\/>\r\n\t<xs:complexType name=\\\"TechnicalRecordInfo\\\">\r\n\t\t<xs:sequence>\r\n\t\t\t<xs:element name=\\\"recordType\\\" type=\\\"np:RecordType\\\" minOccurs=\\\"1\\\" maxOccurs=\\\"1\\\"\/>\r\n\t\t\t<xs:element name=\\\"fieldDefinition\\\" type=\\\"np:TechFieldInfo\\\" minOccurs=\\\"1\\\" maxOccurs=\\\"unbounded\\\"\/>\r\n\t\t<\/xs:sequence>\r\n\t<\/xs:complexType>\r\n\t<xs:simpleType name=\\\"CharacterEncoding\\\">\r\n\t\t<xs:restriction base=\\\"xs:string\\\">\r\n\t\t\t<xs:enumeration value=\\\"ASCII\\\"\/>\r\n\t\t\t<xs:enumeration value=\\\"ISO8859-1\\\"\/>\r\n\t\t\t<xs:enumeration value=\\\"EBCDIC-37\\\"\/>\r\n\t\t\t<xs:enumeration value=\\\"UTF-16\\\"\/>\r\n\t\t\t<xs:enumeration value=\\\"UTF-16_BIGENDIAN\\\"\/>\r\n\t\t\t<xs:enumeration value=\\\"UTF-8\\\"\/>\r\n\t\t\t<xs:enumeration value=\\\"WINDOWS-1252\\\"\/>\r\n\t\t<\/xs:restriction>\r\n\t<\/xs:simpleType>\r\n\t<xs:simpleType name=\\\"RecordType\\\">\r\n\t\t<xs:restriction base=\\\"xs:string\\\">\r\n\t\t\t<xs:enumeration value=\\\"DATA\\\"\/>\r\n\t\t\t<xs:enumeration value=\\\"HEADER\\\"\/>\r\n\t\t\t<xs:enumeration value=\\\"TRAILER\\\"\/>\r\n\t\t<\/xs:restriction>\r\n\t<\/xs:simpleType>\r\n\t<xs:element name=\\\"TechFieldInfo\\\" type=\\\"np:TechFieldInfo\\\"\/>\r\n\t<xs:complexType name=\\\"TechFieldInfo\\\">\r\n\t\t<xs:sequence>\r\n\t\t\t<xs:element name=\\\"fieldNamePath\\\" type=\\\"xs:string\\\" minOccurs=\\\"1\\\" maxOccurs=\\\"1\\\"\/>\r\n\t\t\t<xs:element name=\\\"type\\\" type=\\\"xs:string\\\" minOccurs=\\\"1\\\" maxOccurs=\\\"1\\\"\/>\r\n\t\t\t<xs:element name=\\\"length\\\" type=\\\"xs:int\\\" minOccurs=\\\"0\\\" maxOccurs=\\\"1\\\"\/>\r\n\t\t\t<xs:element name=\\\"precision\\\" type=\\\"xs:int\\\" minOccurs=\\\"0\\\" maxOccurs=\\\"1\\\"\/>\r\n\t\t\t<xs:element name=\\\"scale\\\" type=\\\"xs:int\\\" minOccurs=\\\"0\\\" maxOccurs=\\\"1\\\"\/>\r\n\t\t\t<xs:element name=\\\"format\\\" type=\\\"xs:string\\\" minOccurs=\\\"0\\\" maxOccurs=\\\"1\\\"\/>\r\n\t\t\t<xs:element name=\\\"offset\\\" type=\\\"xs:int\\\" minOccurs=\\\"0\\\" maxOccurs=\\\"1\\\"\/>\r\n\t\t\t<xs:element name=\\\"nullChars\\\" type=\\\"xs:string\\\" minOccurs=\\\"0\\\" maxOccurs=\\\"1\\\"\/>\r\n\t\t\t<xs:element name=\\\"definedBy\\\" type=\\\"np:ElementDefinedBy\\\" minOccurs=\\\"0\\\" maxOccurs=\\\"1\\\">\r\n\t\t\t\t<xs:annotation>\r\n\t\t\t\t\t<xs:documentation>Default value is SOURCE_SCHEMA<\/xs:documentation>\r\n\t\t\t\t<\/xs:annotation>\r\n\t\t\t<\/xs:element>\r\n\t\t\t<xs:element name=\\\"structSelection\\\" type=\\\"np:StructSelection\\\" minOccurs=\\\"0\\\" maxOccurs=\\\"1\\\"\/>\r\n\t\t<\/xs:sequence>\r\n\t<\/xs:complexType>\r\n\t<xs:simpleType name=\\\"ElementDefinedBy\\\">\r\n\t\t<xs:restriction base=\\\"xs:string\\\">\r\n\t\t\t<xs:enumeration value=\\\"SOURCE_SCHEMA\\\"\/>\r\n\t\t\t<xs:enumeration value=\\\"JOB_PARAMETER\\\"\/>\r\n\t\t<\/xs:restriction>\r\n\t<\/xs:simpleType>\r\n\t<xs:element name=\\\"StructSelection\\\" type=\\\"np:StructSelection\\\"\/>\r\n\t<xs:complexType name=\\\"StructSelection\\\">\r\n\t\t<xs:sequence>\r\n\t\t\t<xs:element name=\\\"target\\\" type=\\\"np:SelectionTarget\\\" minOccurs=\\\"1\\\" maxOccurs=\\\"unbounded\\\"\/>\r\n\t\t<\/xs:sequence>\r\n\t\t<xs:attribute name=\\\"flag\\\" use=\\\"optional\\\" type=\\\"xs:string\\\"\/>\r\n\t<\/xs:complexType>\r\n\t<xs:element name=\\\"SelectionTarget\\\" type=\\\"np:SelectionTarget\\\"\/>\r\n\t<xs:complexType name=\\\"SelectionTarget\\\">\r\n\t\t<xs:simpleContent>\r\n\t\t\t<xs:extension base=\\\"xs:string\\\">\r\n\t\t\t\t<xs:attribute name=\\\"value\\\" use=\\\"required\\\" type=\\\"xs:string\\\"\/>\r\n\t\t\t<\/xs:extension>\r\n\t\t<\/xs:simpleContent>\r\n\t<\/xs:complexType>\r\n\t<xs:simpleType name=\\\"FormatType\\\">\r\n\t\t<xs:restriction base=\\\"xs:string\\\">\r\n\t\t\t<xs:enumeration value=\\\"COBOL\\\"\/>\r\n\t\t\t<xs:enumeration value=\\\"JSON\\\"\/>\r\n\t\t\t<xs:enumeration value=\\\"FLAT\\\"\/>\r\n\t\t\t<xs:enumeration value=\\\"SAS_NATIVE\\\"\/>\r\n\t\t\t<xs:enumeration value=\\\"XML\\\"\/>\r\n\t\t<\/xs:restriction>\r\n\t<\/xs:simpleType>\r\n\t<xs:simpleType name=\\\"FormatSubType\\\">\r\n\t\t<xs:annotation>\r\n\t\t\t<xs:documentation>TEXT - used for JSON and XML\r\nBINARY - used for JSON<\/xs:documentation>\r\n\t\t<\/xs:annotation>\r\n\t\t<xs:restriction base=\\\"xs:string\\\">\r\n\t\t\t<xs:enumeration value=\\\"BINARY\\\"\/>\r\n\t\t\t<xs:enumeration value=\\\"DELIMITED\\\"\/>\r\n\t\t\t<xs:enumeration value=\\\"TEXT\\\"\/>\r\n\t\t\t<xs:enumeration value=\\\"DELIMITED_DB2\\\"\/>\r\n\t\t\t<xs:enumeration value=\\\"DELIMITED_ORACLE\\\"\/>\r\n\t\t\t<xs:enumeration value=\\\"DELIMITED_SAS\\\"\/>\r\n\t\t\t<xs:enumeration value=\\\"FIXED_LENGTH\\\"\/>\r\n\t\t\t<xs:enumeration value=\\\"VARIABLE_LENGTH\\\"\/>\r\n\t\t\t<xs:enumeration value=\\\"VARIABLE_NOBLOCK\\\"\/>\r\n\t\t\t<xs:enumeration value=\\\"TEXT_COBOL\\\"\/>\r\n\t\t<\/xs:restriction>\r\n\t<\/xs:simpleType>\r\n\t<xs:element name=\\\"FeedGroup\\\" type=\\\"np:FeedGroup\\\"\/>\r\n\t<xs:complexType name=\\\"FeedGroup\\\">\r\n\t\t<xs:sequence>\r\n\t\t\t<xs:element name=\\\"feedGroupCode\\\" type=\\\"xs:string\\\" minOccurs=\\\"1\\\" maxOccurs=\\\"1\\\"\/>\r\n\t\t\t<xs:element name=\\\"parentFeedGroupCode\\\" type=\\\"xs:string\\\" minOccurs=\\\"0\\\" maxOccurs=\\\"1\\\"\/>\r\n\t\t<\/xs:sequence>\r\n\t<\/xs:complexType>\r\n\t<xs:element name=\\\"BusinessRecordInfo\\\" type=\\\"np:BusinessRecordInfo\\\"\/>\r\n\t<xs:complexType name=\\\"BusinessRecordInfo\\\">\r\n\t\t<xs:sequence>\r\n\t\t\t<xs:element name=\\\"recordType\\\" type=\\\"np:RecordType\\\" minOccurs=\\\"1\\\" maxOccurs=\\\"1\\\"\/>\r\n\t\t\t<xs:element name=\\\"fieldDefinition\\\" type=\\\"np:BusinessFieldInfo\\\" minOccurs=\\\"1\\\" maxOccurs=\\\"unbounded\\\"\/>\r\n\t\t<\/xs:sequence>\r\n\t<\/xs:complexType>\r\n\t<xs:element name=\\\"BusinessFieldInfo\\\" type=\\\"np:BusinessFieldInfo\\\"\/>\r\n\t<xs:complexType name=\\\"BusinessFieldInfo\\\">\r\n\t\t<xs:annotation>\r\n\t\t\t<xs:documentation>Contain the element level non schema information.<\/xs:documentation>\r\n\t\t<\/xs:annotation>\r\n\t\t<xs:sequence>\r\n\t\t\t<xs:element name=\\\"fieldNamePath\\\" type=\\\"xs:string\\\" minOccurs=\\\"1\\\" maxOccurs=\\\"1\\\"\/>\r\n\t\t\t<xs:element name=\\\"privacyClassification\\\" type=\\\"xs:string\\\" minOccurs=\\\"0\\\" maxOccurs=\\\"1\\\"\/>\r\n\t\t\t<xs:element name=\\\"shortDescription\\\" type=\\\"xs:string\\\" minOccurs=\\\"0\\\" maxOccurs=\\\"1\\\"\/>\r\n\t\t\t<xs:element name=\\\"fullDescription\\\" type=\\\"xs:string\\\" minOccurs=\\\"0\\\" maxOccurs=\\\"1\\\"\/>\r\n\t\t\t<xs:element name=\\\"encryptionType\\\" type=\\\"xs:string\\\" minOccurs=\\\"0\\\" maxOccurs=\\\"1\\\">\r\n\t\t\t\t<xs:annotation>\r\n\t\t\t\t\t<xs:documentation>points to enum(type of encryption)<\/xs:documentation>\r\n\t\t\t\t<\/xs:annotation>\r\n\t\t\t<\/xs:element>\r\n\t\t\t<xs:element name=\\\"dataStatistics\\\" type=\\\"np:DataStatistics\\\" minOccurs=\\\"0\\\" maxOccurs=\\\"1\\\"\/>\r\n\t\t<\/xs:sequence>\r\n\t<\/xs:complexType>\r\n\t<xs:element name=\\\"Repository\\\" type=\\\"np:Repository\\\"\/>\r\n\t<xs:complexType name=\\\"Repository\\\">\r\n\t\t<xs:sequence>\r\n\t\t\t<xs:element name=\\\"id\\\" type=\\\"np:ZoneID\\\" minOccurs=\\\"1\\\" maxOccurs=\\\"1\\\"\/>\r\n\t\t\t<xs:element name=\\\"compressionCodec\\\" type=\\\"np:CompressionCodec\\\" minOccurs=\\\"0\\\" maxOccurs=\\\"1\\\"\/>\r\n\t\t\t<xs:element name=\\\"type\\\" type=\\\"np:RepositoryType\\\" minOccurs=\\\"1\\\" maxOccurs=\\\"1\\\"\/>\r\n\t\t\t<xs:element name=\\\"writer\\\" type=\\\"np:RepositoryWriter\\\" minOccurs=\\\"1\\\" maxOccurs=\\\"1\\\"\/>\r\n\t\t\t<xs:element name=\\\"partitionByFields\\\" type=\\\"np:PartitionDefinition\\\" minOccurs=\\\"0\\\" maxOccurs=\\\"1\\\"\/>\r\n\t\t<\/xs:sequence>\r\n\t<\/xs:complexType>\r\n\t<xs:simpleType name=\\\"ZoneID\\\">\r\n\t\t<xs:restriction base=\\\"xs:string\\\">\r\n\t\t\t<xs:enumeration value=\\\"INVALID\\\"\/>\r\n\t\t\t<xs:enumeration value=\\\"OFZ\\\"\/>\r\n\t\t\t<xs:enumeration value=\\\"TSZ\\\"\/>\r\n\t\t<\/xs:restriction>\r\n\t<\/xs:simpleType>\r\n\t<xs:simpleType name=\\\"RepositoryWriter\\\">\r\n\t\t<xs:restriction base=\\\"xs:string\\\">\r\n\t\t\t<xs:enumeration value=\\\"AVRO\\\"\/>\r\n\t\t\t<xs:enumeration value=\\\"HBASE\\\"\/>\r\n\t\t\t<xs:enumeration value=\\\"PARQUET\\\"\/>\r\n\t\t<\/xs:restriction>\r\n\t<\/xs:simpleType>\r\n\t<xs:simpleType name=\\\"CompressionCodec\\\">\r\n\t\t<xs:restriction base=\\\"xs:string\\\">\r\n\t\t\t<xs:enumeration value=\\\"BZIP2\\\"\/>\r\n\t\t\t<xs:enumeration value=\\\"SNAPPY\\\"\/>\r\n\t\t<\/xs:restriction>\r\n\t<\/xs:simpleType>\r\n\t<xs:simpleType name=\\\"RepositoryType\\\">\r\n\t\t<xs:restriction base=\\\"xs:string\\\">\r\n\t\t\t<xs:enumeration value=\\\"HBASE\\\"\/>\r\n\t\t\t<xs:enumeration value=\\\"HDFS\\\"\/>\r\n\t\t<\/xs:restriction>\r\n\t<\/xs:simpleType>\r\n\t<xs:element name=\\\"PartitionFields\\\" type=\\\"np:PartitionFields\\\"\/>\r\n\t<xs:complexType name=\\\"PartitionFields\\\">\r\n\t\t<xs:sequence>\r\n\t\t\t<xs:element name=\\\"partitionByField\\\" type=\\\"np:PartitionField\\\" minOccurs=\\\"1\\\" maxOccurs=\\\"unbounded\\\"\/>\r\n\t\t<\/xs:sequence>\r\n\t<\/xs:complexType>\r\n\t<xs:element name=\\\"PartitionField\\\" type=\\\"np:PartitionField\\\"\/>\r\n\t<xs:complexType name=\\\"PartitionField\\\">\r\n\t\t<xs:annotation>\r\n\t\t\t<xs:documentation>A partition field can be a field defined in source feed, or a generated field that system derives. Regardless, each partition field should be defined in FielddInfo.<\/xs:documentation>\r\n\t\t<\/xs:annotation>\r\n\t\t<xs:all>\r\n\t\t\t<xs:element name=\\\"fieldNamePath\\\" type=\\\"xs:string\\\" minOccurs=\\\"1\\\" maxOccurs=\\\"1\\\"\/>\r\n\t\t\t<xs:element name=\\\"defaultValue\\\" type=\\\"xs:string\\\" minOccurs=\\\"0\\\" maxOccurs=\\\"1\\\"\/>\r\n\t\t<\/xs:all>\r\n\t<\/xs:complexType>\r\n\t<xs:element name=\\\"PartitionDefinition\\\" type=\\\"np:PartitionDefinition\\\"\/>\r\n\t<xs:complexType name=\\\"PartitionDefinition\\\">\r\n\t\t<xs:sequence>\r\n            <!-- candidates to be removed\r\n\t\t\t<xs:element name=\\\"_partitionCardinality\\\" type=\\\"xs:int\\\" minOccurs=\\\"0\\\" maxOccurs=\\\"1\\\"\/>\r\n\t\t\t-->\r\n\t\t\t<xs:element name=\\\"partitionByFields\\\" type=\\\"np:PartitionFields\\\" minOccurs=\\\"1\\\" maxOccurs=\\\"1\\\"\/>\r\n\t\t\t<xs:element name=\\\"partitionMethod\\\" type=\\\"np:ElementDefinedBy\\\" minOccurs=\\\"1\\\" maxOccurs=\\\"1\\\"\/>\r\n\t\t<\/xs:sequence>\r\n\t<\/xs:complexType>\r\n\t<xs:element name=\\\"DataStatistics\\\" type=\\\"np:DataStatistics\\\"\/>\r\n\t<xs:complexType name=\\\"DataStatistics\\\">\r\n\t\t<xs:sequence>\r\n\t\t\t<xs:element name=\\\"statistic\\\" type=\\\"np:StatisticType\\\" minOccurs=\\\"1\\\" maxOccurs=\\\"unbounded\\\"\/>\r\n\t\t<\/xs:sequence>\r\n\t<\/xs:complexType>\r\n\t<xs:simpleType name=\\\"StatisticType\\\">\r\n\t\t<xs:restriction base=\\\"xs:string\\\"\/>\r\n\t<\/xs:simpleType>\r\n<\/xs:schema>"
},


  "templates": {
  "meta": {
    "code": 200,
    "errorMessage": "",
    "errorTrace": ""
  },
  "data": [
    {
      "typeName": "configurationUnit",
      "values": {
        "description": "configuration unit which will be inherited by all other     configuration units",
        "configuration_unit_name": "cie"
      }
    },
    {
      "typeName": "configurationUnit",
      "values": {
        "description": "",
        "configuration_unit_name": "batch"
      }
    }
  ]
},

"cie": {
		  "meta": {
		    "code": 200,
		    "errorMessage": "",
		    "errorTrace": ""
		  },
		  "data": [
		    {
		      "typeName": "templateConfig",
		      "values": {
		        "description": null,
		        "property_name": "spring.hadoop.resourceManagerHost",
		        "validation_regex": "",
		        "required": false,
			 "default_value": "localhost",  	
		        "type": "STRING"
		      }
		    },
		    {
		      "typeName": "templateConfig",
		      "values": {
		        "description": null,
		        "property_name": "spring.hadoop.resourceManagerPort",
		        "validation_regex": "[1-9][0-9]{3}",
		        "required": false,
                     "default_value": "8050",
		        "type": "INTEGER"
		      }
		    }
		  ]
		},


"instances": {
		  "meta": {
		    "code": 200,
		    "errorMessage": "",
		    "errorTrace": ""
		  },
		  "data": [
		    {
		      "typeName": "instanceConfig",
		      "values": {
		        "description": "this represents an instance config for cie",
		        "instance_name": "cie"
		      }
		    },
		    {
		      "typeName": "instanceConfig",
		      "values": {
		        "description": "this represents an instance config for batch",
		        "instance_name": "batch"
		      }
		    }
		  ]
		},

"instanceName": {
		  "data": [
		    {
		      "typeName": "runtimeConfig",
		      "values": {
		        "property_name": "ca.nextpathway.ingest.file-system-uri",
		        "property_value": "${spring.hadoop.fsUri}"
		      }
		    },
		    {
		      "typeName": "runtimeConfig",
		      "values": {
		        "property_name": "ca.nextpathway.ingest.hbase.host",
		        "property_value": "localhost"
		      }
		    }
		  ]
		}
}
