{
  "name": "item",
  "plural": "items",
  "base": "PersistedModel",
  "idInjection": true,
  "properties": {
    "name": {
      "type": "string",
      "required": true
    },
    "description": {
      "type": "string"
    }
  },
  "validations": [],
  "relations": {},
  "acls": [],
  "methods": {}
}
