{
  "db": {
    "name": "db",
    "connector": "memory"
  },
  "mongoDB": {
    "port": 27017,
    "database": "vidfire",
    "name": "mongoDB",
    "connector": "mongodb"
  },
  "EmailDataSource": {
    "name": "EmailDataSource",
    "connector": "mail",
    "transports": [
      {
        "type": "SMTP",
        "host": "smtp.gmail.com",
        "secure": true,
        "port": 465,
        "auth": {
          "user": "getvidfire@gmail.com",
          "pass": "qwerty77"
        }
      }
    ]
  }
}
